[
  {
    "quote": "The only way it gets better for you is when you get better.</br>^2000 Better is not something you wish, it's something you become.",
    "author": "Jim Rohn"
  },
  {
    "quote": "Life was NOT designed to give us what we^800 want, NOT to give us what we^800 need, but^1000 life was designed to give us what we deserved",
    "author": "Jim Rohn"
  },
  {
    "quote": "Work harder on yourself than you do on your job",
    "author": "Jim Rohn"
  },
  {
    "quote": "The MAJOR key to your better future is^1000 YOU",
    "author": "Jim Rohn"
  },
  {
    "quote": "Life does not get better by^500 CHANCE, it gets better by^500 CHANGE.",
    "author": "Jim Rohn"
  },
  {
    "quote": "Discipline has within it the potential for creating future miracles.",
    "author": "Jim Rohn"
  },
  {
    "quote": "Let others lead small lives, but not you.\n Let others argue over small things, but not you.\n Let others cry over small hurts, but not you.\n Let others leave their future in someone else's hands, but not you.",
    "author": "Jim Rohn"
  },
  {
    "quote": "Happiness is not an accident. Nor is it something you wish for. Happiness is something you design.",
    "author": "Jim Rohn"
  },
  {
    "quote": "Get excited over those small disciplines. You can't handle big challenge in life unless you take all little ones",
    "author": "Jim Rohn"
  },
  {
    "quote": "Do not dwell in the past,^500 do not dream of the future,^500 concentrate the mind on the present moment",
    "author": "Buddha"
  },
  {
    "quote": "If you do what you've always done, you'll get what you've always gotten.",
    "author": "Tonny Robbins"
  },
  {
    "quote": "Most people fail in life because they major in minor things.",
    "author": "Tonny Robbins"
  },
  {
    "quote": "Our crisis is no longer material;^500 it's existential, it's spiritual.^500 We have so much fucking stuff and so many opportunities that we don't even know what to give a fuck about anymore",
    "author": "Mark Manson"
  },
  {
    "quote": "Because when we give too many fucks, when we choose to give a fuck about everything, then we feel as though we are perpetually entitled to feel comfortable and happy at all times, that's when life fucks us.",
    "author": "Mark Manson"
  },
  {
    "quote": "Those who are not looking for happiness^500 are the most likely to find it,^800 because those who are searching forget that the surest way to be happy^500 is to seek happiness for others.",
    "author": "Martin Luther King Jr."
  }
]
